…
``` r
mobest::create_geopos(
  id = 1:100,
  x = c(sample(100000:700000, 50), sample(300000:1000000, 50)),
  y = c(sample(100000:700000, 50), sample(300000:1000000, 50))
)
```

    ## # A tibble: 100 × 3
    ##       id      x      y
    ##    <int>  <int>  <int>
    ##  1     1 349697 531615
    ##  2     2 682396 677009
    ##  3     3 111943 674572
    ##  4     4 539214 440676
    ##  5     5 255543 244130
    ##  6     6 678504 341140
    ##  7     7 536256 545510
    ##  8     8 544375 530917
    ##  9     9 208521 371833
    ## 10    10 115593 134532
    ## # … with 90 more rows
…
``` r
mobest::geopos_to_spatpos(
  mobest::create_geopos(
    id = 1:100,
    x = c(sample(100000:700000, 50), sample(300000:1000000, 50)),
    y = c(sample(100000:700000, 50), sample(300000:1000000, 50))
  ),
  c(-5000, -4900, -4800)
)
```

    ## # A tibble: 300 × 5
    ##       id      x      y     z geo_id
    ##    <int>  <int>  <int> <dbl>  <int>
    ##  1     1 329750 162954 -5000      1
    ##  2     2 329750 162954 -4900      1
    ##  3     3 329750 162954 -4800      1
    ##  4     4 334821 301093 -5000      2
    ##  5     5 334821 301093 -4900      2
    ##  6     6 334821 301093 -4800      2
    ##  7     7 460308 458861 -5000      3
    ##  8     8 460308 458861 -4900      3
    ##  9     9 460308 458861 -4800      3
    ## 10    10 697811 669567 -5000      4
    ## # … with 290 more rows

`mobest::create_spatpos` directly creates
`mobest_spatiotemporalpositions` objects to represent spatiotemporal
positions.

``` r
positions <- mobest::create_spatpos(
  id = 1:100,
  x = c(sample(100000:700000, 50), sample(300000:1000000, 50)),
  y = c(sample(100000:700000, 50), sample(300000:1000000, 50)),
  z = c(sample(-5000:-3500, 50), sample(-4500:-3000, 50))
)
```

    ## # A tibble: 100 × 4
    ##       id      x      y     z
    ##    <int>  <int>  <int> <int>
    ##  1     1 593039 372080 -3586
    ##  2     2 326494 513740 -4501
    ##  3     3 636281 563535 -4272
    ##  4     4 122139 171731 -3975
    ##  5     5 540838 345322 -4791
    ##  6     6 298406 213714 -3961
    ##  7     7 364614 301969 -3868
    ##  8     8 301387 108758 -4638
    ##  9     9 476376 567265 -4779
    ## 10    10 511404 537129 -4283
    ## # … with 90 more rows
#### Genetic coordinates

`mobest::create_obs` creates an object `mobest_observations`, which is a
`tibble` with genetic coordinates. Genetic coordinates can be any simple
numeric measure of ancestry, for example the position of the samples in
PCA space.

``` r
observations <- mobest::create_obs(
  ac1 = c(runif(50, 0, 0.6), runif(50, 0.4, 1)), # "ac" here for "ancestry component", e.g. PCA coordinate 1
  ac2 = c(runif(50, 0, 0.3), runif(50, 0.5, 1)) # e.g. PCA coordinate 2
)
```

    ## # A tibble: 100 × 2
    ##       ac1    ac2
    ##     <dbl>  <dbl>
    ##  1 0.370  0.208 
    ##  2 0.331  0.151 
    ##  3 0.455  0.183 
    ##  4 0.114  0.194 
    ##  5 0.563  0.240 
    ##  6 0.0873 0.0353
    ##  7 0.203  0.0386
    ##  8 0.538  0.272 
    ##  9 0.316  0.0307
    ## 10 0.578  0.0695
    ## # … with 90 more rows
…
`mobest::calculate_pairwise_distances` calculates different types of
pairwise distances (spatial, temporal, ancestry components) for each
input sample pair and returns them in a long format `tibble` of class
`mobest_pairwisedistances`.

``` r
pairwise_distances <- mobest::calculate_pairwise_distances(
  independent = positions,
  dependent = observations,
  m_to_km = T
)
```

    ## # A tibble: 10,000 × 9
    ##      id1   id2 geo_dist time_dist obs_dist_total ac1_d…¹ ac1_d…² ac2_d…³ ac2_d…⁴
    ##    <int> <int>    <dbl>     <dbl>          <dbl>   <dbl>   <dbl>   <dbl>   <dbl>
    ##  1     1     1      0           0         0       0      0        0      0      
    ##  2     2     1    302.        915         0.0697  0.0391 0.0776   0.0577 0.183  
    ##  3     3     1    196.        686         0.0881  0.0845 0.0631   0.0249 0.00299
    ##  4     4     1    512.        389         0.256   0.256  0.00965  0.0145 0.385  
    ##  5     5     1     58.7      1205         0.195   0.193  0.343    0.0313 0.304  
    ##  6     6     1    334.        375         0.332   0.283  0.0898   0.173  0.119  
    ##  7     7     1    239.        282         0.238   0.167  0.0402   0.170  0.0297 
    ##  8     8     1    393.       1052         0.180   0.168  0.473    0.0639 0.536  
    ##  9     9     1    227.       1193         0.186   0.0546 0.0230   0.178  0.0192 
    ## 10    10     1    184.        697         0.250   0.208  0.236    0.139  0.0415 
    ## # … with 9,990 more rows, and abbreviated variable names ¹​ac1_dist,
    ## #   ²​ac1_dist_resid, ³​ac2_dist, ⁴​ac2_dist_resid
…
`mobest::bin_pairwise_distances` bins the pairwise distances in an
`mobest_pairwisedistances` object and calculates an empirical variogram
(class `mobest_empiricalvariogram`) from them.

``` r
variogram <- mobest::bin_pairwise_distances(
  pairwise_distances,
  geo_bin = 100, time_bin = 100
)
```

    ## # A tibble: 198 × 8
    ##    geo_dist_cut time_dist_cut obs_dist_t…¹ ac1_d…² ac1_d…³ ac2_d…⁴ ac2_d…⁵     n
    ##           <dbl>         <dbl>        <dbl>   <dbl>   <dbl>   <dbl>   <dbl> <int>
    ##  1           50            50       0.0314  0.0195  0.0193  0.0119  0.0115   152
    ##  2           50           150       0.0722  0.0282  0.0260  0.0440  0.0478    58
    ##  3           50           250       0.0887  0.0312  0.0320  0.0575  0.0522    38
    ##  4           50           350       0.0937  0.0438  0.0476  0.0499  0.0523    36
    ##  5           50           450       0.0939  0.0336  0.0331  0.0602  0.0529    44
    ##  6           50           550       0.0974  0.0461  0.0428  0.0514  0.0401    42
    ##  7           50           650       0.0907  0.0482  0.0533  0.0425  0.0566    12
    ##  8           50           750       0.0802  0.0320  0.0351  0.0482  0.0470    30
    ##  9           50           850       0.112   0.0265  0.0302  0.0856  0.0719    28
    ## 10           50           950       0.0916  0.0367  0.0360  0.0550  0.0445    18
    ## # … with 188 more rows, and abbreviated variable names ¹​obs_dist_total,
    ## #   ²​ac1_dist, ³​ac1_dist_resid, ⁴​ac2_dist, ⁵​ac2_dist_resid
…
``` r
mle_sequence <- mobest::laGP_mle_sequence_isotropic_fixed_g(
  independent = dplyr::mutate(positions, x = x/1000, y = y/1000),
  dependent = observations,
  iterations = 2,
  g = c(ac1 = 0.1, ac2 = 0.1),
  space_time_scaling_factor_sequence = seq(0.1, 2, 0.1),
  verb = 0
)
```

    ## # A tibble: 80 × 10
    ##    iteration dependent…¹ scali…² scali…³ scali…⁴     d     l optim…⁵    ds    dt
    ##        <int> <chr>         <dbl> <fract> <fct>   <dbl> <dbl>   <int> <dbl> <dbl>
    ##  1         1 ac1             0.1 0.1     1/10     883. -52.1      11  883. 8831.
    ##  2         1 ac1             0.2 0.2     1/5      960. -52.8      11  960. 4802.
    ##  3         1 ac1             0.3 0.3     3/10    1041. -53.3      11 1041. 3471.
    ##  4         1 ac1             0.4 0.4     2/5     1123. -53.6      10 1123. 2809.
    ##  5         1 ac1             0.5 0.5     1/2     1196. -53.8      10 1196. 2392.
    ##  6         1 ac1             0.6 0.6     3/5     1255. -53.8      10 1255. 2092.
    ##  7         1 ac1             0.7 0.7     7/10    1307. -53.8      11 1307. 1867.
    ##  8         1 ac1             0.8 0.8     4/5     1365. -53.7      11 1365. 1707.
    ##  9         1 ac1             0.9 0.9     9/10    1436. -53.7      11 1436. 1596.
    ## 10         1 ac1             1   1.0     1       1520. -53.6      11 1520. 1520.
    ## # … with 70 more rows, and abbreviated variable names ¹​dependent_var_id,
    ## #   ²​scaling_factor, ³​scaling_factor_fractional, ⁴​scaling_factor_label,
    ## #   ⁵​optimizer_iterations
…
interpol_comparison <- mobest::crossvalidate(
  independent = positions,
  dependent = observations,
  kernel = kernels_to_test,
  iterations = 2,
  groups = 10,
  quiet = T
)
```

    ## # A tibble: 3,600 × 18
    ##    indep…¹ depen…² depen…³ kerne…⁴ pred_…⁵ mixin…⁶   dsx   dsy    dt     g    id
    ##    <chr>   <chr>   <chr>   <chr>   <chr>     <int> <dbl> <dbl> <dbl> <dbl> <int>
    ##  1 ind_cr… obs_cr… ac1     kernel… pred_c…       1   1e5   1e5   100 0.065    45
    ##  2 ind_cr… obs_cr… ac1     kernel… pred_c…       1   1e5   1e5   100 0.065    16
    ##  3 ind_cr… obs_cr… ac1     kernel… pred_c…       1   1e5   1e5   100 0.065    43
    ##  4 ind_cr… obs_cr… ac1     kernel… pred_c…       1   1e5   1e5   100 0.065    96
    ##  5 ind_cr… obs_cr… ac1     kernel… pred_c…       1   1e5   1e5   100 0.065    61
    ##  6 ind_cr… obs_cr… ac1     kernel… pred_c…       1   1e5   1e5   100 0.065    93
    ##  7 ind_cr… obs_cr… ac1     kernel… pred_c…       1   1e5   1e5   100 0.065    24
    ##  8 ind_cr… obs_cr… ac1     kernel… pred_c…       1   1e5   1e5   100 0.065    21
    ##  9 ind_cr… obs_cr… ac1     kernel… pred_c…       1   1e5   1e5   100 0.065    42
    ## 10 ind_cr… obs_cr… ac1     kernel… pred_c…       1   1e5   1e5   100 0.065    15
    ## # … with 3,590 more rows, 7 more variables: x <int>, y <int>, z <int>,
    ## #   mean <dbl>, sd <dbl>, measured <dbl>, difference <dbl>, and abbreviated
    ## #   variable names ¹​independent_table_id, ²​dependent_setting_id,
    ## #   ³​dependent_var_id, ⁴​kernel_setting_id, ⁵​pred_grid_id, ⁶​mixing_iteration
…
    pred_grid_1 = expand.grid(
      x = seq(100000, 1000000, 100000), 
      y = seq(100000, 1000000, 100000),
      z = seq(-5500, -3000, 500)
    ) %>% { mobest::create_spatpos(id = 1:nrow(.), x = .$x, y = .$y, z = .$z) },
    pred_grid_2 = expand.grid(
      x = seq(100000, 1000000, 100000), 
      y = seq(100000, 1000000, 100000),
      z = seq(-5500, -3000, 500)
    ) %>% { mobest::create_spatpos(id = 1:nrow(.), x = .$x, y = .$y, z = .$z) }
  )
)
```

    ## # A tibble: 32 × 9
    ##    independent_t…¹ depen…² depen…³ kerne…⁴ pred_…⁵ independ…⁶ depen…⁷ kernel_s…⁸
    ##    <chr>           <chr>   <chr>   <chr>   <chr>   <mbst_sp_> <named> <mbst_krn>
    ##  1 dating_1        obs1    ac1     kernel… pred_g… <mbst_spt> <dbl>   <mbst_krn>
    ##  2 dating_2        obs1    ac1     kernel… pred_g… <mbst_spt> <dbl>   <mbst_krn>
    ##  3 dating_1        obs2    ac1     kernel… pred_g… <mbst_spt> <dbl>   <mbst_krn>
    ##  4 dating_2        obs2    ac1     kernel… pred_g… <mbst_spt> <dbl>   <mbst_krn>
    ##  5 dating_1        obs1    ac2     kernel… pred_g… <mbst_spt> <dbl>   <mbst_krn>
    ##  6 dating_2        obs1    ac2     kernel… pred_g… <mbst_spt> <dbl>   <mbst_krn>
    ##  7 dating_1        obs2    ac2     kernel… pred_g… <mbst_spt> <dbl>   <mbst_krn>
    ##  8 dating_2        obs2    ac2     kernel… pred_g… <mbst_spt> <dbl>   <mbst_krn>
    ##  9 dating_1        obs1    ac1     kernel… pred_g… <mbst_spt> <dbl>   <mbst_krn>
    ## 10 dating_2        obs1    ac1     kernel… pred_g… <mbst_spt> <dbl>   <mbst_krn>
    ## # … with 22 more rows, 1 more variable: pred_grid <mbst_sp_>, and abbreviated
    ## #   variable names ¹​independent_table_id, ²​dependent_setting_id,
    ## #   ³​dependent_var_id, ⁴​kernel_setting_id, ⁵​pred_grid_id, ⁶​independent_table,
    ## #   ⁷​dependent_var, ⁸​kernel_setting

`mobest::run_model_grid` runs each model and returns an unnested table
of interpolation results for each prediction grid point and each model
parameter setting.

``` r
interpol_grid <- mobest::run_model_grid(model_grid, quiet = T)
```

    ## # A tibble: 19,200 × 15
    ##    indepen…¹ depen…² depen…³ kerne…⁴ pred_…⁵   dsx   dsy    dt     g    id     x
    ##    <chr>     <chr>   <chr>   <chr>   <chr>   <dbl> <dbl> <dbl> <dbl> <int> <dbl>
    ##  1 dating_1  obs1    ac1     kernel… pred_g…   1e6   1e6   200   0.1     1   1e5
    ##  2 dating_1  obs1    ac1     kernel… pred_g…   1e6   1e6   200   0.1     2   2e5
    ##  3 dating_1  obs1    ac1     kernel… pred_g…   1e6   1e6   200   0.1     3   3e5
    ##  4 dating_1  obs1    ac1     kernel… pred_g…   1e6   1e6   200   0.1     4   4e5
    ##  5 dating_1  obs1    ac1     kernel… pred_g…   1e6   1e6   200   0.1     5   5e5
    ##  6 dating_1  obs1    ac1     kernel… pred_g…   1e6   1e6   200   0.1     6   6e5
    ##  7 dating_1  obs1    ac1     kernel… pred_g…   1e6   1e6   200   0.1     7   7e5
    ##  8 dating_1  obs1    ac1     kernel… pred_g…   1e6   1e6   200   0.1     8   8e5
    ##  9 dating_1  obs1    ac1     kernel… pred_g…   1e6   1e6   200   0.1     9   9e5
    ## 10 dating_1  obs1    ac1     kernel… pred_g…   1e6   1e6   200   0.1    10   1e6
    ## # … with 19,190 more rows, 4 more variables: y <dbl>, z <dbl>, mean <dbl>,
    ## #   sd <dbl>, and abbreviated variable names ¹​independent_table_id,
    ## #   ²​dependent_setting_id, ³​dependent_var_id, ⁴​kernel_setting_id, ⁵​pred_grid_id
…
The spatiotemporal probability grids `locate` returns are calculated are
per ancestry component (as put in via `dependent`/`search_dependent`).
To multiply the ancestry component grids, `mobest` provides
`mobest::multiply_dependent_probabilities`, which yields an object of
class `mobest_locateproduct`. The output probabilities are normalized
per permutation.

``` r
mobest::multiply_dependent_probabilities(locate_simple)
```

    ## # A tibble: 800 × 15
    ##    independent…¹ depen…² kerne…³ pred_…⁴ field…⁵ field_x field_y field_z field…⁶
    ##    <chr>         <chr>   <chr>   <chr>     <int>   <dbl>   <dbl>   <dbl>   <int>
    ##  1 i             d       k       time_s…       1  100000  100000   -3686       1
    ##  2 i             d       k       time_s…       2  200000  100000   -3686       2
    ##  3 i             d       k       time_s…       3  300000  100000   -3686       3
    ##  4 i             d       k       time_s…       4  400000  100000   -3686       4
    ##  5 i             d       k       time_s…       5  500000  100000   -3686       5
    ##  6 i             d       k       time_s…       6  600000  100000   -3686       6
    ##  7 i             d       k       time_s…       7  700000  100000   -3686       7
    ##  8 i             d       k       time_s…       8  800000  100000   -3686       8
    ##  9 i             d       k       time_s…       9  900000  100000   -3686       9
    ## 10 i             d       k       time_s…      10 1000000  100000   -3686      10
    ## # … with 790 more rows, 6 more variables: search_id <int>, search_x <int>,
    ## #   search_y <int>, search_z <int>, search_time <dbl>, probability <dbl>, and
    ## #   abbreviated variable names ¹​independent_table_id, ²​dependent_setting_id,
    ## #   ³​kernel_setting_id, ⁴​pred_grid_id, ⁵​field_id, ⁶​field_geo_id
…
`mobest::locate_multi` produces many probability grids for each sample.
Even after `mobest::multiply_dependent_probabilities` merges the
per-ancestry component iterations, that still leaves many parameter
permutations. `mobest::fold_probabilities_per_group` is a convenient
function to combine these to a single, merged probability grid of class
`mobest_locatefold`. The folding operation can be set in the argument
`folding_operation`, where the default is a simple sum. Again, in the
default setting, the output probabilities are normalized per
permutation.

``` r
mobest::fold_probabilities_per_group(locate_product)
```

    ## # A tibble: 400 × 9
    ##    search_id field_id search_z search_x search_y field_x field_y field_z proba…¹
    ##        <int>    <int>    <int>    <int>    <int>   <dbl>   <dbl>   <dbl>   <dbl>
    ##  1         1        1    -3586   593039   372080  100000  100000   -3586  0.0124
    ##  2         1        2    -3586   593039   372080  200000  100000   -3586  0.0136
    ##  3         1        3    -3586   593039   372080  300000  100000   -3586  0.0149
    ##  4         1        4    -3586   593039   372080  400000  100000   -3586  0.0166
    ##  5         1        5    -3586   593039   372080  500000  100000   -3586  0.0186
    ##  6         1        6    -3586   593039   372080  600000  100000   -3586  0.0203
    ##  7         1        7    -3586   593039   372080  700000  100000   -3586  0.0208
    ##  8         1        8    -3586   593039   372080  800000  100000   -3586  0.0190
    ##  9         1        9    -3586   593039   372080  900000  100000   -3586  0.0155
    ## 10         1       10    -3586   593039   372080 1000000  100000   -3586  0.0115
    ## # … with 390 more rows, and abbreviated variable name ¹​probability

`fold_probabilities_per_group` also allows to maintain the the
permutation groups, in case a full summary is not desired:

``` r
mobest::fold_probabilities_per_group(locate_product, dependent_setting_id, kernel_setting_id)
```

    ## # A tibble: 1,600 × 11
    ##    dependent_s…¹ kerne…² searc…³ field…⁴ searc…⁵ searc…⁶ searc…⁷ field_x field_y
    ##    <chr>         <chr>     <int>   <int>   <int>   <int>   <int>   <dbl>   <dbl>
    ##  1 obs1          kernel…       1       1   -3586  593039  372080  100000  100000
    ##  2 obs1          kernel…       1       2   -3586  593039  372080  200000  100000
    ##  3 obs1          kernel…       1       3   -3586  593039  372080  300000  100000
    ##  4 obs1          kernel…       1       4   -3586  593039  372080  400000  100000
    ##  5 obs1          kernel…       1       5   -3586  593039  372080  500000  100000
    ##  6 obs1          kernel…       1       6   -3586  593039  372080  600000  100000
    ##  7 obs1          kernel…       1       7   -3586  593039  372080  700000  100000
    ##  8 obs1          kernel…       1       8   -3586  593039  372080  800000  100000
    ##  9 obs1          kernel…       1       9   -3586  593039  372080  900000  100000
    ## 10 obs1          kernel…       1      10   -3586  593039  372080 1000000  100000
    ## # … with 1,590 more rows, 2 more variables: field_z <dbl>, probability <dbl>,
    ## #   and abbreviated variable names ¹​dependent_setting_id, ²​kernel_setting_id,
    ## #   ³​search_id, ⁴​field_id, ⁵​search_z, ⁶​search_x, ⁷​search_y
…
origin_summary <- mobest::summarize_origin_vectors(
  packed_origin_vectors,
  region_id,
  window_start = -5000,
  window_stop = -3000,
  window_width = 100,
  window_step = 10,
  quiet = T
)
```

    ## # A tibble: 573 × 6
    ##    region_id     z ov_dist ov_dist_se ov_dist_sd ov_angle_deg
    ##    <chr>     <dbl>   <dbl>      <dbl>      <dbl>        <dbl>
    ##  1 A         -4950      NA        Inf        Inf           NA
    ##  2 A         -4940      NA        Inf        Inf           NA
    ##  3 A         -4930      NA        Inf        Inf           NA
    ##  4 A         -4920      NA        Inf        Inf           NA
    ##  5 A         -4910      NA        Inf        Inf           NA
    ##  6 A         -4900      NA        Inf        Inf           NA
    ##  7 A         -4890      NA        Inf        Inf           NA
    ##  8 A         -4880      NA        Inf        Inf           NA
    ##  9 A         -4870      NA        Inf        Inf           NA
    ## 10 A         -4860      NA        Inf        Inf           NA
    ## # … with 563 more rows
…
